<?xml version="1.0" encoding="UTF-8"?>
<svg xmlns="http://www.w3.org/2000/svg" xmlns:xlink="http://www.w3.org/1999/xlink" width="15pt" height="15pt" viewBox="0 0 15 15" version="1.1">
<g id="surface1">
<path style=" stroke:none;fill-rule:nonzero;fill:rgb(99.607843%,78.431373%,1.568627%);fill-opacity:1;" d="M 7.5 0.375 L 9.269531 5.835938 L 15 5.8125 L 10.359375 9.164062 L 12.140625 14.625 L 7.5 11.234375 L 2.871094 14.625 L 4.640625 9.164062 L 0 5.8125 L 5.746094 5.835938 Z M 7.5 0.375 "/>
</g>
</svg>
